Division,WeightClassKg,Place,Name,Team,BodyweightKg,Best3SquatKg,Best3BenchKg,Best3DeadliftKg,TotalKg,Equipment,Event,Sex,BirthDate
Boys,51.71,1,Cooper Talley,Quanah,50.8,99.79,54.43,113.4,267.62,Single-ply,SBD,M,
Boys,51.71,2,Tyler Slimp,Alvord,51.12,92.99,45.36,113.4,251.74,Single-ply,SBD,M,
Boys,51.71,3,Xavier Marroquin,Strawn,45.63,90.72,49.9,102.06,242.67,Single-ply,SBD,M,
Boys,51.71,4,Koda Wood,Quanah,49.08,90.72,49.9,102.06,242.67,Single-ply,SBD,M,
Boys,51.71,5,Jaden Dobyns,Alvord,47.08,83.91,47.63,104.33,235.87,Single-ply,SBD,M,
Boys,55.79,1,Wyatt Abbott,Alvord,55.43,138.35,86.18,151.95,376.48,Single-ply,SBD,M,
Boys,55.79,2,Dylon Myrow,Chico,52.93,122.47,68.04,122.47,312.98,Single-ply,SBD,M,
Boys,55.79,3,Ethan Stallings,Hawley,53.84,115.67,61.23,117.93,294.84,Single-ply,SBD,M,
Boys,59.87,1,Tucker Abbott,Alvord,58.97,167.83,92.99,174.63,435.45,Single-ply,SBD,M,
Boys,59.87,2,Jeffery Brown,Chico,56.06,136.08,88.45,151.95,376.48,Single-ply,SBD,M,
Boys,59.87,3,Jesse Corona,Strawn,59.87,149.69,61.23,151.95,362.87,Single-ply,SBD,M,
Boys,59.87,4,Logan Turner,Perrin-Whitt,57.56,120.2,79.38,122.47,322.05,Single-ply,SBD,M,
Boys,59.87,NS,Casey Beach,Perrin-Whitt,,,,,,Single-ply,SBD,M,
Boys,67.13,1,Matthew Jimenez #2,Haskell,65.5,190.51,115.67,210.92,517.1,Single-ply,SBD,M,
Boys,67.13,2,Chase Compton,Alvord,66.54,190.51,111.13,181.44,483.08,Single-ply,SBD,M,
Boys,67.13,3,Raul Warnock,Chico,65.63,190.51,90.72,190.51,471.74,Single-ply,SBD,M,
Boys,67.13,4,Trenton Sizemore,Strawn,66,181.44,95.25,183.7,460.4,Single-ply,SBD,M,
Boys,67.13,5,Arturo Parra,Chico,65.36,181.44,95.25,181.44,458.13,Single-ply,SBD,M,
Boys,67.13,6,Jason Kaufmann,Quanah,61.92,167.83,90.72,163.29,421.84,Single-ply,SBD,M,
Boys,67.13,7,Gage Gillispie,Archer City,65.54,145.15,90.72,170.1,405.97,Single-ply,SBD,M,
Boys,67.13,8,Adam Hope,Quanah,63.5,147.42,86.18,163.29,396.89,Single-ply,SBD,M,
Boys,67.13,9,Daniel Taylor,Collinsville,65.45,158.76,83.91,151.95,394.63,Single-ply,SBD,M,
Boys,67.13,10,Jessie Butler,Alvord,63.78,133.81,95.25,145.15,374.21,Single-ply,SBD,M,
Boys,67.13,11,Leo DeLatorre,Strawn,66.13,136.08,68.04,154.22,358.34,Single-ply,SBD,M,
Boys,67.13,12,Kyler Tunnell,Strawn,62.23,136.08,77.11,142.88,356.07,Single-ply,SBD,M,
Boys,74.84,1,Ramiro Aguilar,Hawley,74.8,190.51,124.74,208.65,523.9,Single-ply,SBD,M,
Boys,74.84,2,Troy Conner,Quanah,74.34,181.44,111.13,199.58,492.15,Single-ply,SBD,M,
Boys,74.84,3,Rayce Pennartz,Alvord,72.67,190.51,108.86,176.9,476.27,Single-ply,SBD,M,
Boys,74.84,4,Alex Carey,Hawley,74.75,192.78,102.06,165.56,460.4,Single-ply,SBD,M,
Boys,74.84,5,Artem Brendle,Haskell,72.35,165.56,108.86,181.44,455.86,Single-ply,SBD,M,
Boys,74.84,6,Luke Leonard,Haskell,72.98,170.1,99.79,170.1,439.98,Single-ply,SBD,M,
Boys,74.84,7,Brandon Wheeler,Tioga,72.35,167.83,79.38,170.1,417.3,Single-ply,SBD,M,
Boys,74.84,8,Ethan Cato,Quanah,72.53,158.76,79.38,158.76,396.89,Single-ply,SBD,M,
Boys,74.84,9,Joseph Hickey,Petrolia,71.4,149.69,92.99,147.42,390.09,Single-ply,SBD,M,
Boys,74.84,10,Trey Pender,Santo,70.9,154.22,74.84,149.69,378.75,Single-ply,SBD,M,
Boys,74.84,DQ,Kaleb Flake,Alvord,72.67,158.76,97.52,,,Single-ply,SBD,M,
Boys,74.84,DQ,Brock Adair,Perrin-Whitt,73.94,136.08,86.18,,,Single-ply,SBD,M,
Boys,82.1,1,Braydon Garcia,Quanah,80.51,204.12,129.27,217.72,551.11,Single-ply,SBD,M,
Boys,82.1,2,Jake Holmes,Perrin-Whitt,81.37,183.7,129.27,226.8,539.77,Single-ply,SBD,M,
Boys,82.1,3,Jett Millsop,Strawn,79.29,217.72,108.86,181.44,508.02,Single-ply,SBD,M,
Boys,82.1,4,Kyle Nichols,Hawley,76.38,188.24,111.13,190.51,489.88,Single-ply,SBD,M,
Boys,82.1,5,Wade Colley,Petrolia,82.1,183.7,108.86,181.44,474,Single-ply,SBD,M,
Boys,82.1,6,Michael Tallant,Santo,81.83,174.63,113.4,181.44,469.47,Single-ply,SBD,M,
Boys,82.1,7,Garrett Pearce,Chico,80.42,176.9,102.06,165.56,444.52,Single-ply,SBD,M,
Boys,82.1,8,Martin Hernandez #4,Haskell,76.52,183.7,72.57,181.44,437.72,Single-ply,SBD,M,
Boys,82.1,9,Cooper Wheat,Haskell,78.74,158.76,99.79,167.83,426.38,Single-ply,SBD,M,
Boys,82.1,10,Evan Enriquez,Haskell,79.56,161.03,90.72,170.1,421.84,Single-ply,SBD,M,
Boys,82.1,11,Jakobe McGary,Quanah,74.93,154.22,79.38,181.44,415.04,Single-ply,SBD,M,
Boys,82.1,12,Brian Butler,Alvord,81.6,151.95,102.06,158.76,412.77,Single-ply,SBD,M,
Boys,82.1,NS,Grayson Ward,Collinsville,,,,,,Single-ply,SBD,M,
Boys,89.81,1,Corley Williams,Hawley,87.86,199.58,149.69,204.12,553.38,Single-ply,SBD,M,
Boys,89.81,2,Jose Estrada,Strawn,89.81,217.72,129.27,188.24,535.24,Single-ply,SBD,M,
Boys,89.81,3,Daniel Mora,Alvord,84.19,185.97,104.33,192.78,483.08,Single-ply,SBD,M,
Boys,89.81,4,Bryce Johnson #6,Collinsville,87.14,172.37,102.06,172.37,446.79,Single-ply,SBD,M,
Boys,89.81,5,Kadin Parsons,Strawn,86.09,136.08,95.25,204.12,435.45,Single-ply,SBD,M,
Boys,89.81,6,Luke Peacock,Haskell,87.27,158.76,90.72,181.44,430.91,Single-ply,SBD,M,
Boys,89.81,7,Logan Isbell,Haskell,85.77,151.95,95.25,154.22,401.43,Single-ply,SBD,M,
Boys,89.81,8,Graham Carver,Perrin-Whitt,82.28,113.4,79.38,120.2,312.98,Single-ply,SBD,M,
Boys,89.81,DQ,Rendon Robertson,Alvord,87,151.95,,,,Single-ply,SBD,M,
Boys,89.81,NS,Austin Cumpton,Hawley,,,,,,Single-ply,SBD,M,
Boys,89.81,NS,Lucas Moreno,Hawley,,,,,,Single-ply,SBD,M,
Boys,99.79,1,Lorenzo Garcia,Strawn,98.88,272.16,147.42,204.12,623.69,Single-ply,SBD,M,
Boys,99.79,2,Hez Parker,Hawley,90.58,208.65,142.88,192.78,544.31,Single-ply,SBD,M,
Boys,99.79,3,Justice Baker #1,Strawn,95.25,226.8,124.74,188.24,539.77,Single-ply,SBD,M,
Boys,99.79,4,Dalton Stanley,Tioga,95.03,210.92,147.42,165.56,523.9,Single-ply,SBD,M,
Boys,99.79,5,Luke Short,Petrolia,98.29,204.12,131.54,185.97,521.63,Single-ply,SBD,M,
Boys,99.79,6,Jayden Weaver,Quanah,97.89,192.78,104.33,188.24,485.34,Single-ply,SBD,M,
Boys,99.79,7,Aiden Hopkins,Santo,92.85,158.76,99.79,161.03,419.57,Single-ply,SBD,M,
Boys,99.79,8,Cj Call,Quanah,97.52,158.76,102.06,147.42,408.23,Single-ply,SBD,M,
Boys,99.79,9,Colton Willett,Haskell,91.35,172.37,83.91,147.42,403.7,Single-ply,SBD,M,
Boys,99.79,10,Lex Laursen,Santo,97.34,149.69,90.72,163.29,403.7,Single-ply,SBD,M,
Boys,99.79,11,Brayden Smith,Santo,91.4,142.88,90.72,140.61,374.21,Single-ply,SBD,M,
Boys,99.79,DQ,Cole Eberhart,Alvord,91.53,136.08,,,,Single-ply,SBD,M,
Boys,109.77,1,Max Hopkins,Strawn,109,249.48,111.13,210.92,571.53,Single-ply,SBD,M,
Boys,109.77,2,Francisco Barrera,Quanah,107.86,226.8,129.27,183.7,539.77,Single-ply,SBD,M,
Boys,109.77,3,Hayden Sands,Alvord,106.37,206.38,113.4,176.9,496.68,Single-ply,SBD,M,
Boys,109.77,4,Gage Hodges,Perrin-Whitt,104.14,176.9,120.2,183.7,480.81,Single-ply,SBD,M,
Boys,109.77,5,Dakota Rodriguez,Haskell,106.14,183.7,86.18,208.65,478.54,Single-ply,SBD,M,
Boys,109.77,6,Colby West,Haskell,102.42,158.76,83.91,133.81,376.48,Single-ply,SBD,M,
Boys,109.77,DQ,Keylan Chambers,Alvord,101.02,,,,,Single-ply,SBD,M,
Boys,109.77,DQ,Ryland Staggs,Perrin-Whitt,100.56,111.13,72.57,,,Single-ply,SBD,M,
Boys,109.77,DQ,Rowdy Sparks,Strawn,100.92,208.65,113.4,,,Single-ply,SBD,M,
Boys,124.74,1,Bo Thompson,Hawley,112.13,283.5,204.12,249.48,737.09,Single-ply,SBD,M,
Boys,124.74,2,Troi Barrera,Quanah,115.71,192.78,104.33,204.12,501.22,Single-ply,SBD,M,
Boys,124.74,3,Luke Langham,Alvord,115.08,210.92,111.13,165.56,487.61,Single-ply,SBD,M,
Boys,124.74,4,Adam Crawford,Perrin-Whitt,118.39,158.76,95.25,170.1,424.11,Single-ply,SBD,M,
Boys,124.74,5,Brett Hamilton,Santo,120.2,181.44,99.79,142.88,424.11,Single-ply,SBD,M,
Boys,124.74,6,Jonathan Eddleton,Petrolia,113.53,170.1,92.99,147.42,410.5,Single-ply,SBD,M,
Boys,124.74,DQ,Kenny Moore,Hawley,124.15,,,,,Single-ply,SBD,M,
Boys,139.71,1,Kaleb Crable,Alvord,124.87,235.87,136.08,172.37,544.31,Single-ply,SBD,M,
Boys,139.71,2,Cesar Espinosa,Strawn,124.92,183.7,120.2,174.63,478.54,Single-ply,SBD,M,
Boys,139.71+,1,Wesley Estridge,Albany,148.42,317.51,190.51,226.8,734.82,Single-ply,SBD,M,
Boys,139.71+,2,Brett Briscoe,Petrolia,150.28,281.23,145.15,188.24,614.62,Single-ply,SBD,M,
Boys,139.71+,3,Hilton Murphy,Archer City,192.37,129.27,79.38,158.76,367.41,Single-ply,SBD,M,
