Division,WeightClassKg,Place,Name,Team,BodyweightKg,Best3SquatKg,Best3BenchKg,Best3DeadliftKg,TotalKg,Equipment,Event,Sex,BirthDate
Girls,44.23,1,Rylan Bizzell,Garrison,43.09,58.97,36.29,86.18,181.44,Unlimited,SBD,F,
Girls,51.94,1,Rebecca McDaniel,Beckville,50.35,74.84,52.16,88.45,215.46,Unlimited,SBD,F,
Girls,56.02,1,Alexis Huffman,Garrison,52.16,108.86,65.77,117.93,292.57,Unlimited,SBD,F,
Girls,56.02,2,Gracey Struwe,Beckville,55.79,86.18,56.7,106.59,249.48,Unlimited,SBD,F,
Girls,56.02,3,Cass Hogue,Joaquin,54.43,83.91,54.43,95.25,233.6,Unlimited,SBD,F,
Girls,56.02,4,Kambryn Rodrigues,Garrison,55.34,90.72,45.36,95.25,231.33,Unlimited,SBD,F,
Girls,56.02,5,Breanna Gray,Garrison,53.52,74.84,38.56,95.25,208.65,Unlimited,SBD,F,
Girls,60.1,1,Sarah Traxler,Garrison,58.06,97.52,40.82,124.74,263.08,Unlimited,SBD,F,
Girls,67.36,1,Darby Banister,Beckville,64.86,79.38,52.16,95.25,226.8,Unlimited,SBD,F,
Girls,75.07,1,Mackynzie Cranford,Garrison,68.95,127.01,77.11,131.54,335.66,Unlimited,SBD,F,
Girls,75.07,2,Mallory Roberts,Garrison,68.95,104.33,52.16,104.33,260.82,Unlimited,SBD,F,
Girls,75.07,3,Zion James,Joaquin,74.39,79.38,43.09,92.99,215.46,Unlimited,SBD,F,
Girls,82.33,1,Amori Jones,Beckville,76.2,111.13,65.77,131.54,308.44,Unlimited,SBD,F,
Girls,82.33,2,Arianna Taylor,Beckville,80.74,92.99,58.97,102.06,254.01,Unlimited,SBD,F,
Girls,90.04,1,Adyson Davis,Beckville,86.18,90.72,65.77,113.4,269.89,Unlimited,SBD,F,
Girls,90.04,1,Riley Mullins,Joaquin,88.9,136.08,77.11,142.88,356.07,Unlimited,SBD,F,
Girls,90.04,2,Jaycee Metcalf,Joaquin,83.91,88.45,52.16,104.33,244.94,Unlimited,SBD,F,
Girls,90.04,3,Amie Edmonson,Joaquin,83.46,77.11,40.82,104.33,222.26,Unlimited,SBD,F,
Girls,110,1,Remington Parnell,Joaquin,103.42,97.52,56.7,99.79,254.01,Unlimited,SBD,F,
Girls,110+,1,Alivia Panero,Joaquin,123.38,79.38,52.16,113.4,244.94,Unlimited,SBD,F,
