Division,WeightClassKg,Place,Name,Team,BodyweightKg,Best3SquatKg,Best3BenchKg,Best3DeadliftKg,TotalKg,Equipment,Event,Sex
Boys,51.71,1,Tuti Garcia,Los Fresnos,51.71,154.22,86.18,174.63,415.04,Single-ply,SBD,M
Boys,51.71,2,Brooks Guzman,Weslaco East,50.35,154.22,74.84,167.83,396.89,Single-ply,SBD,M
Boys,51.71,3,Anthony Garcia,Weslaco,46.18,102.06,61.23,108.86,272.16,Single-ply,SBD,M
Boys,51.71,4,Rigo Medina,Donna,49.35,86.18,54.43,97.52,238.14,Single-ply,SBD,M
Boys,51.71,5,Joseph Acosta,PSJA,43.27,72.57,38.56,72.57,183.7,Single-ply,SBD,M
Boys,59.87,1,David Garcia #5,Pharr Valley View,55.88,156.49,97.52,188.24,442.25,Single-ply,SBD,M
Boys,55.79,2,Angel Flores #2,Weslaco East,55.07,161.03,95.25,165.56,421.84,Single-ply,SBD,M
Boys,55.79,3,Alexis Hernandez,Donna,55.7,145.15,92.99,145.15,383.29,Single-ply,SBD,M
Boys,55.79,4,Mike Barajas,Hidalgo Early College,55.52,147.42,70.31,145.15,362.87,Single-ply,SBD,M
Boys,55.79,5,Eder Contreras,Hidalgo Early College,55.7,120.2,90.72,149.69,360.61,Single-ply,SBD,M
Boys,55.79,6,Mauro Vargas,La Joya Juarez-Lincoln,55.61,120.2,88.45,136.08,344.73,Single-ply,SBD,M
Boys,59.87,7,Andres Martinez,Port Isabel,55.97,127.01,77.11,136.08,340.19,Single-ply,SBD,M
Boys,59.87,8,Mario Villarreal,Weslaco,55.88,117.93,63.5,129.27,310.71,Single-ply,SBD,M
Boys,55.79,DQ,Raul Mota,San Benito,55.16,165.56,,,,Single-ply,SBD,M
Boys,59.87,1,Louis Vasquez,Los Fresnos,58.88,170.1,102.06,185.97,458.13,Single-ply,SBD,M
Boys,59.87,2,Ben Guajardo,Mission Sharyland,59.87,151.95,102.06,188.24,442.25,Single-ply,SBD,M
Boys,59.87,3,Juan Rivera,Los Fresnos,57.42,145.15,111.13,172.37,428.64,Single-ply,SBD,M
Boys,59.87,4,Julian Vasquez,San Benito,59.06,151.95,97.52,156.49,405.97,Single-ply,SBD,M
Boys,59.87,5,Randy Medellin,San Benito,58.88,156.49,92.99,154.22,403.7,Single-ply,SBD,M
Boys,67.13,6,Juan Melchor,La Joya Palmview,60.06,151.95,77.11,163.29,392.36,Single-ply,SBD,M
Boys,59.87,7,Marcus Lopez,La Joya Palmview,59.06,131.54,97.52,154.22,383.29,Single-ply,SBD,M
Boys,59.87,8,Vince Hernandez,Pharr Valley View,59.78,124.74,72.57,145.15,342.46,Single-ply,SBD,M
Boys,59.87,9,Michael Hernandez #7,Pharr Valley View,59.69,104.33,61.23,145.15,310.71,Single-ply,SBD,M
Boys,67.13,10,Joel Guerrero,Donna,59.96,97.52,56.7,131.54,285.76,Single-ply,SBD,M
Boys,67.13,11,Alexis Gonzalez #3,PSJA,60.06,106.59,61.23,117.93,285.76,Single-ply,SBD,M
Boys,59.87,12,Zane Sullivan,Riviera Kaufer,59.42,83.91,72.57,113.4,269.89,Single-ply,SBD,M
Boys,67.13,1,Joshua Garcia,Weslaco,64.95,197.31,106.59,222.26,526.17,Single-ply,SBD,M
Boys,67.13,2,Toby Torres,San Benito,66.04,183.7,120.2,197.31,501.22,Single-ply,SBD,M
Boys,67.13,3,Aaron Anguiano,Pharr Valley View,65.41,176.9,108.86,201.85,487.61,Single-ply,SBD,M
Boys,67.13,4,Jerry Pena,Rio Grande City,65.86,185.97,102.06,192.78,480.81,Single-ply,SBD,M
Boys,67.13,5,Luis Marina,Mission Sharyland,65.95,158.76,106.59,185.97,451.32,Single-ply,SBD,M
Boys,67.13,6,Jorge Ramos #2,Weslaco,65.77,165.56,108.86,174.63,449.06,Single-ply,SBD,M
Boys,74.84,7,Anthony Noyola,San Benito,67.31,163.29,111.13,163.29,437.72,Single-ply,SBD,M
Boys,67.13,8,Azul Barrientos,Los Fresnos,65.86,138.35,106.59,183.7,428.64,Single-ply,SBD,M
Boys,67.13,9,Guillermo Sac,Hidalgo Early College,66.13,149.69,106.59,163.29,419.57,Single-ply,SBD,M
Boys,67.13,10,Edson Carvajal,La Joya Juarez-Lincoln,65.95,142.88,104.33,165.56,412.77,Single-ply,SBD,M
Boys,67.13,11,Javier Ramos II,PSJA,65.14,145.15,90.72,167.83,403.7,Single-ply,SBD,M
Boys,67.13,12,Allan Cruz,Mission Veterans Memorial,61.05,156.49,92.99,138.35,387.82,Single-ply,SBD,M
Boys,67.13,13,Enrique Perez,Mission Sharyland,65.68,138.35,86.18,161.03,385.55,Single-ply,SBD,M
Boys,74.84,14,Mike Vale,Hidalgo Early College,67.22,138.35,77.11,149.69,365.14,Single-ply,SBD,M
Boys,67.13,15,Jonathan Guitterez,Harlingen South,62.96,142.88,83.91,136.08,362.87,Single-ply,SBD,M
Boys,74.84,16,Eric Ginez,Donna,67.31,124.74,72.57,149.69,347,Single-ply,SBD,M
Boys,67.13,17,Anthony Castillo,Harlingen South,63.5,127.01,72.57,142.88,342.46,Single-ply,SBD,M
Boys,67.13,18,Oliver Barrera,Rio Grande City Grulla,61.96,115.67,70.31,136.08,322.05,Single-ply,SBD,M
Boys,67.13,19,Jacob Barrera,PSJA,66.04,136.08,70.31,102.06,308.44,Single-ply,SBD,M
Boys,67.13,20,Edgar Garcia,Mission,64.14,113.4,63.5,127.01,303.91,Single-ply,SBD,M
Boys,67.13,21,Valentin Ayala,Hidalgo Early College,66.22,111.13,70.31,115.67,297.1,Single-ply,SBD,M
Boys,67.13,22,Eduardo Gonzalez,La Joya Juarez-Lincoln,65.14,115.67,68.04,106.59,290.3,Single-ply,SBD,M
Boys,67.13,DQ,Allen Rojas,Rio Grande City Grulla,64.41,140.61,,,,Single-ply,SBD,M
Boys,67.13,DQ,Jason Garza,Rio Grande City Grulla,65.86,88.45,,,,Single-ply,SBD,M
Boys,67.13,DQ,Jesus Garcia #1,Mission,61.96,195.04,,,,Single-ply,SBD,M
Boys,67.13,DQ,Edgar Arredondo,Hidalgo Early College,63.05,104.33,,,,Single-ply,SBD,M
Boys,74.84,1,Bryan Sanchez,Weslaco East,74.57,213.19,133.81,224.53,571.53,Single-ply,SBD,M
Boys,74.84,2,Felix Tirado,Weslaco,74.03,188.24,127.01,206.38,521.63,Single-ply,SBD,M
Boys,74.84,3,Alex Santisteban,La Joya,70.94,195.04,115.67,199.58,510.29,Single-ply,SBD,M
Boys,74.84,4,Aaron Estevanes,Weslaco,71.3,192.78,106.59,210.92,510.29,Single-ply,SBD,M
Boys,74.84,5,Joe Gonzalez,La Joya Juarez-Lincoln,73.39,183.7,104.33,201.85,489.88,Single-ply,SBD,M
Boys,74.84,6,Gilbert Guajardo,Pharr Valley View,73.66,188.24,108.86,192.78,489.88,Single-ply,SBD,M
Boys,74.84,7,Chain Camacho,Port Isabel,71.12,172.37,127.01,188.24,487.61,Single-ply,SBD,M
Boys,74.84,8,Adonis Juarez,Mission,71.21,190.51,111.13,183.7,485.34,Single-ply,SBD,M
Boys,74.84,9,John Ray Martinez,Port Isabel,72.03,188.24,108.86,176.9,474,Single-ply,SBD,M
Boys,74.84,10,Joseph Segovia,Mission,73.12,167.83,111.13,181.44,460.4,Single-ply,SBD,M
Boys,74.84,11,Daniel Rivera,Harlingen South,68.4,142.88,111.13,172.37,426.38,Single-ply,SBD,M
Boys,74.84,12,Angel Hernandez #6,Pharr Valley View,69.85,136.08,102.06,181.44,419.57,Single-ply,SBD,M
Boys,74.84,13,Mark Ochoa,Donna North,70.31,142.88,70.31,147.42,360.61,Single-ply,SBD,M
Boys,74.84,14,Alex Zuniga,Mission,74.39,124.74,81.65,151.95,358.34,Single-ply,SBD,M
Boys,74.84,15,Jake Saldana,Mission,70.13,136.08,79.38,136.08,351.53,Single-ply,SBD,M
Boys,74.84,DQ,Eddie Garcia,Mission,72.94,163.29,,,,Single-ply,SBD,M
Boys,74.84,DQ,Adan Cantu,Rio Grande City Grulla,74.84,231.33,,,,Single-ply,SBD,M
Boys,82.1,1,Ram Mendoza,Weslaco East,80.92,238.14,142.88,217.72,598.74,Single-ply,SBD,M
Boys,82.1,2,Miguel Herrera,Donna,80.83,226.8,133.81,199.58,560.19,Single-ply,SBD,M
Boys,82.1,3,Gilbert Trevino,Weslaco,80.47,213.19,129.27,210.92,553.38,Single-ply,SBD,M
Boys,82.1,4,Brandon Garza,Rio Grande City,81.1,206.38,122.47,195.04,523.9,Single-ply,SBD,M
Boys,82.1,5,Javier Galvan,Weslaco,80.74,185.97,108.86,208.65,503.49,Single-ply,SBD,M
Boys,82.1,6,Christian Segovia,Mission,79.92,185.97,106.59,197.31,489.88,Single-ply,SBD,M
Boys,82.1,7,Trey Saldana,San Benito,80.1,174.63,124.74,190.51,489.88,Single-ply,SBD,M
Boys,82.1,8,Ray Villarreal,Mission Veterans Memorial,81.47,165.56,115.67,204.12,485.34,Single-ply,SBD,M
Boys,82.1,9,Robert Garza,Donna,80.92,190.51,104.33,188.24,483.08,Single-ply,SBD,M
Boys,82.1,10,Robert Hernandez,La Joya Juarez-Lincoln,79.02,172.37,104.33,195.04,471.74,Single-ply,SBD,M
Boys,82.1,11,Jose Bernal,La Joya Palmview,78.83,183.7,102.06,183.7,469.47,Single-ply,SBD,M
Boys,82.1,12,Omar Garza,Donna North,82.01,174.63,90.72,204.12,469.47,Single-ply,SBD,M
Boys,82.1,13,Stevin Marquez,Mission Sharyland,80.74,145.15,102.06,188.24,435.45,Single-ply,SBD,M
Boys,82.1,14,Joseph Rios,Mission,79.47,147.42,108.86,170.1,426.38,Single-ply,SBD,M
Boys,82.1,15,Marco Mediola,Mission Veterans Memorial,78.97,147.42,102.06,174.63,424.11,Single-ply,SBD,M
Boys,82.1,DQ,Hugo Cabrerra,Mission Veterans Memorial,80.83,170.1,,,,Single-ply,SBD,M
Boys,82.1,DQ,David Cantu,Mission Sharyland,79.74,,,,,Single-ply,SBD,M
Boys,82.1,DQ,Eddie Nunez,La Joya,81.83,,,,,Single-ply,SBD,M
Boys,82.1,DQ,Desse Zarate,Rio Grande City Grulla,80.2,183.7,,,,Single-ply,SBD,M
Boys,89.81,1,Augustin Morales,Weslaco East,87.09,244.94,133.81,215.46,594.21,Single-ply,SBD,M
Boys,89.81,2,Ryan Navarro,Weslaco East,87.09,238.14,136.08,217.72,591.94,Single-ply,SBD,M
Boys,99.79,3,Aaron Zapata,Los Fresnos,89.99,231.33,129.27,231.33,591.94,Single-ply,SBD,M
Boys,99.79,4,Jonah Cepeda,Los Fresnos,89.9,217.72,111.13,226.8,555.65,Single-ply,SBD,M
Boys,89.81,5,Marco Zuñiga,San Benito,87.36,213.19,106.59,215.46,535.24,Single-ply,SBD,M
Boys,89.81,6,Christian Hoshino,Port Isabel,89.72,195.04,122.47,199.58,517.1,Single-ply,SBD,M
Boys,89.81,7,Tristan Echavarria,Donna,89.81,204.12,108.86,204.12,517.1,Single-ply,SBD,M
Boys,89.81,8,Ricky Rodriguez,Mission Veterans Memorial,89.4,183.7,113.4,185.97,483.08,Single-ply,SBD,M
Boys,89.81,9,Jose Melendez,Pharr Valley View,87.45,181.44,102.06,188.24,471.74,Single-ply,SBD,M
Boys,89.81,10,Justin Candalaria,PSJA,88.9,188.24,124.74,156.49,469.47,Single-ply,SBD,M
Boys,89.81,11,Julio Garcia,La Joya Juarez-Lincoln,86.09,163.29,111.13,185.97,460.4,Single-ply,SBD,M
Boys,89.81,12,Erik Marroquin,La Joya,85.18,174.63,97.52,181.44,453.59,Single-ply,SBD,M
Boys,89.81,13,Jorge Moreno,La Joya Palmview,89.36,161.03,102.06,183.7,446.79,Single-ply,SBD,M
Boys,89.81,14,Isaacc Martinez,Port Isabel,88.09,165.56,102.06,176.9,444.52,Single-ply,SBD,M
Boys,89.81,15,Fernando Hernandez,La Joya Juarez-Lincoln,88.81,163.29,99.79,167.83,430.91,Single-ply,SBD,M
Boys,89.81,16,Carlos Flores,Riviera Kaufer,86.45,147.42,95.25,176.9,419.57,Single-ply,SBD,M
Boys,89.81,17,Jared Sheneman,Harlingen South,85.09,147.42,92.99,172.37,412.77,Single-ply,SBD,M
Boys,89.81,18,Abram Gutierrez,Harlingen South,84.82,158.76,79.38,172.37,410.5,Single-ply,SBD,M
Boys,89.81,19,Christian Salinas,Mission,85.82,163.29,97.52,142.88,403.7,Single-ply,SBD,M
Boys,89.81,20,Seth Huerta,Mission,87.63,124.74,88.45,133.81,347,Single-ply,SBD,M
Boys,89.81,21,Patricio Barredo,McAllen,89.81,122.47,72.57,145.15,340.19,Single-ply,SBD,M
Boys,89.81,22,Luis Rubio,Mission,85.73,131.54,63.5,142.88,337.93,Single-ply,SBD,M
Boys,89.81,23,Mario Cortinas,Mission,83.73,106.59,83.91,117.93,308.44,Single-ply,SBD,M
Boys,89.81,DQ,Jonathan Lugo,Pharr Valley View,88.99,156.49,117.93,,,Single-ply,SBD,M
Boys,89.81,DQ,Lazaro Bernabe,Hidalgo Early College,86.64,102.06,79.38,,,Single-ply,SBD,M
Boys,99.79,1,Jesus Martinez,Weslaco East,99.34,226.8,154.22,226.8,607.81,Single-ply,SBD,M
Boys,109.77,2,Steven Rodriguez,San Benito,99.88,215.46,147.42,235.87,598.74,Single-ply,SBD,M
Boys,99.79,3,Jerry DeCanini,Weslaco East,99.06,226.8,127.01,226.8,580.6,Single-ply,SBD,M
Boys,99.79,4,Israel Alfaro,Weslaco East,97.98,219.99,142.88,208.65,571.53,Single-ply,SBD,M
Boys,99.79,5,Leroy Rodrguez,La Joya Palmview,95.71,226.8,120.2,204.12,551.11,Single-ply,SBD,M
Boys,99.79,6,Lalo Buenrostro,San Benito,97.61,213.19,120.2,217.72,551.11,Single-ply,SBD,M
Boys,109.77,7,Francisco Perales,Donna North,99.97,208.65,131.54,188.24,528.44,Single-ply,SBD,M
Boys,99.79,8,Eddie Garza,Rio Grande City,94.89,197.31,145.15,183.7,526.17,Single-ply,SBD,M
Boys,99.79,9,Adrian Flores,Mission Veterans Memorial,99.79,185.97,113.4,226.8,526.17,Single-ply,SBD,M
Boys,99.79,10,Victor Tamez,PSJA,98.25,208.65,129.27,176.9,514.83,Single-ply,SBD,M
Boys,99.79,11,Ricky Rodriguez,San Benito,94.71,183.7,127.01,199.58,510.29,Single-ply,SBD,M
Boys,99.79,12,Manuel Lerma,Donna North,94.17,195.04,117.93,176.9,489.88,Single-ply,SBD,M
Boys,99.79,13,Jessy Valdez,PSJA,90.9,199.58,113.4,172.37,485.34,Single-ply,SBD,M
Boys,99.79,14,Armando Chavero,Rio Grande City,97.7,174.63,115.67,176.9,467.2,Single-ply,SBD,M
Boys,99.79,15,Danny Munguia,Mission Veterans Memorial,91.9,176.9,113.4,174.63,464.93,Single-ply,SBD,M
Boys,99.79,16,James Heath,Mission Sharyland,97.89,181.44,97.52,158.76,437.72,Single-ply,SBD,M
Boys,99.79,17,Alexis Alleman,McAllen,98.97,154.22,111.13,158.76,424.11,Single-ply,SBD,M
Boys,109.77,18,Orlando Escobar,Mission,99.88,154.22,97.52,158.76,410.5,Single-ply,SBD,M
Boys,99.79,19,Rey Rodriguez,Pharr Valley View,95.62,154.22,81.65,167.83,403.7,Single-ply,SBD,M
Boys,99.79,20,Noah Bocanegra,McAllen,92.71,138.35,90.72,167.83,396.89,Single-ply,SBD,M
Boys,109.77,21,Zach Flores,McAllen,99.88,165.56,81.65,140.61,387.82,Single-ply,SBD,M
Boys,99.79,22,Brandon Tapia,McAllen,98.34,142.88,86.18,154.22,383.29,Single-ply,SBD,M
Boys,99.79,23,Ireneo Ongcal,McAllen,92.62,156.49,63.5,158.76,378.75,Single-ply,SBD,M
Boys,99.79,24,Juan Resendez,La Joya,94.08,124.74,102.06,142.88,369.68,Single-ply,SBD,M
Boys,99.79,25,Zeke Guetierrez,Mission,94.98,145.15,68.04,122.47,335.66,Single-ply,SBD,M
Boys,99.79,26,Brandon Cantu,Mission,93.26,113.4,79.38,113.4,306.17,Single-ply,SBD,M
Boys,99.79,27,Jesus Sifuentes,La Joya Palmview,90.99,83.91,83.91,120.2,288.03,Single-ply,SBD,M
Boys,99.79,DQ,Donovan Cantu,Mission,93.89,181.44,124.74,,,Single-ply,SBD,M
Boys,99.79,DQ,Javier Elizondo,Mission Sharyland,91.72,142.88,,,,Single-ply,SBD,M
Boys,99.79,DQ,Jesús Torres,Weslaco,92.44,199.58,124.74,,,Single-ply,SBD,M
Boys,99.79,DQ,Joe de la Cruz,Rio Grande City Grulla,99.34,231.33,,,,Single-ply,SBD,M
Boys,99.79,DQ,Mathias Bazan,Rio Grande City Grulla,98.79,170.1,,,,Single-ply,SBD,M
Boys,109.77,1,Andres A Martinez,PSJA,107.23,226.8,142.88,208.65,578.33,Single-ply,SBD,M
Boys,109.77,2,Luis Martinez,San Benito,106.14,208.65,149.69,199.58,557.92,Single-ply,SBD,M
Boys,109.77,3,Roy Villarreal,Weslaco East,105.14,233.6,124.74,195.04,553.38,Single-ply,SBD,M
Boys,109.77,4,Jonathan Grimaldo,Donna,103.24,208.65,122.47,217.72,548.85,Single-ply,SBD,M
Boys,109.77,5,Fidel Grimaldo,Donna North,101.97,190.51,106.59,215.46,512.56,Single-ply,SBD,M
Boys,109.77,6,Mike Rodriguez,La Joya Palmview,103.15,183.7,102.06,204.12,489.88,Single-ply,SBD,M
Boys,109.77,7,Fernando Gonzalez,La Joya Palmview,105.69,174.63,120.2,192.78,487.61,Single-ply,SBD,M
Boys,109.77,8,Fred Franco,Mission Veterans Memorial,101.15,176.9,120.2,181.44,478.54,Single-ply,SBD,M
Boys,109.77,9,Abel Villarreal,Harlingen South,107.5,192.78,113.4,172.37,478.54,Single-ply,SBD,M
Boys,109.77,10,Juan Pablo Torres,Donna,109.41,190.51,113.4,165.56,469.47,Single-ply,SBD,M
Boys,109.77,11,Christian Ozuna,La Joya Juarez-Lincoln,105.32,188.24,106.59,172.37,467.2,Single-ply,SBD,M
Boys,109.77,12,Kevin de la Garza,Mission Veterans Memorial,101.7,161.03,97.52,170.1,428.64,Single-ply,SBD,M
Boys,109.77,13,Jose de Leon #1,Mission,103.96,174.63,79.38,174.63,428.64,Single-ply,SBD,M
Boys,109.77,14,Jesus Bonilla,Mission,107.77,167.83,102.06,149.69,419.57,Single-ply,SBD,M
Boys,109.77,15,Marc Vasquez,McAllen,100.61,117.93,86.18,138.35,342.46,Single-ply,SBD,M
Boys,109.77,16,Mac Mireles,Donna North,102.51,129.27,54.43,117.93,301.64,Single-ply,SBD,M
Boys,109.77,DQ,Jonathan Bolanos,Hidalgo Early College,109.41,,,,,Single-ply,SBD,M
Boys,124.74,1,Jose Juarez #5,Weslaco,115.21,254.01,165.56,222.26,641.83,Single-ply,SBD,M
Boys,124.74,2,Rudy Zarate,Hidalgo Early College,117.3,265.35,154.22,222.26,641.83,Single-ply,SBD,M
Boys,124.74,3,Nazario Garza,Rio Grande City Grulla,120.75,229.06,136.08,226.8,591.94,Single-ply,SBD,M
Boys,124.74,4,Erik Munoz,Harlingen South,118.21,249.48,117.93,219.99,587.4,Single-ply,SBD,M
Boys,124.74,5,Josue Garzoria,Los Fresnos,121.74,183.7,147.42,249.48,580.6,Single-ply,SBD,M
Boys,124.74,6,Edgar Rodriguez,Rio Grande City,121.65,242.67,111.13,199.58,553.38,Single-ply,SBD,M
Boys,124.74,7,Rene Perez,Weslaco,122.02,219.99,142.88,188.24,551.11,Single-ply,SBD,M
Boys,124.74,8,Julian Rosales,Rio Grande City,118.39,208.65,117.93,210.92,537.51,Single-ply,SBD,M
Boys,124.74,9,Henry Flores,Harlingen South,122.2,233.6,113.4,188.24,535.24,Single-ply,SBD,M
Boys,124.74,10,Caleb Adkins,Mission Veterans Memorial,114.35,185.97,122.47,190.51,498.95,Single-ply,SBD,M
Boys,124.74,11,Albert Garcia,Mission Veterans Memorial,116.48,181.44,136.08,176.9,494.42,Single-ply,SBD,M
Boys,124.74,12,Luis Castilla,Donna North,113.13,204.12,120.2,165.56,489.88,Single-ply,SBD,M
Boys,124.74,13,Jose Ortiz,La Joya Juarez-Lincoln,116.57,183.7,106.59,188.24,478.54,Single-ply,SBD,M
Boys,124.74,14,Juan Gonzalez,Riviera Kaufer,112.94,129.27,83.91,165.56,378.75,Single-ply,SBD,M
Boys,124.74,15,Joseph Guerra,McAllen,118.48,158.76,72.57,142.88,374.21,Single-ply,SBD,M
Boys,124.74,DQ,Andres Hernandez,La Joya Palmview,115.67,142.88,,,,Single-ply,SBD,M
Boys,124.74,DQ,Ruben Cisneros,Donna,120.38,238.14,,,,Single-ply,SBD,M
Boys,124.74+,1,Sergio Morales,Weslaco East,151.95,272.16,183.7,272.16,728.02,Single-ply,SBD,M
Boys,124.74+,2,Jose Limon,Los Fresnos,152.5,319.78,151.95,254.01,725.75,Single-ply,SBD,M
Boys,124.74+,3,Erik Ortega,Rio Grande City,141.97,274.42,138.35,235.87,648.64,Single-ply,SBD,M
Boys,124.74+,4,Rolando Suarez,PSJA,148.32,244.94,165.56,197.31,607.81,Single-ply,SBD,M
Boys,124.74+,5,Raul de la Cruz,Mission,128.91,217.72,108.86,208.65,535.24,Single-ply,SBD,M
Boys,124.74+,6,Jose Molina #1,Donna North,132.45,201.85,129.27,199.58,530.7,Single-ply,SBD,M
Boys,124.74+,7,Daniel Solis,La Joya,139.07,233.6,102.06,192.78,528.44,Single-ply,SBD,M
Boys,124.74+,DQ,Ezequiel Garza,La Joya,137.26,,,,,Single-ply,SBD,M
