Division,WeightClassKg,Place,Name,Team,BodyweightKg,Best3SquatKg,Best3BenchKg,Best3DeadliftKg,TotalKg,Equipment,Event,Sex,BirthDate
Girls,44.23,1,Jennifer Lopez,Ferris,42.27,92.99,47.63,102.06,242.67,Unlimited,SBD,F,
Girls,44.23,2,Jocelyn Romero,Ferris,43.09,92.99,43.09,86.18,222.26,Unlimited,SBD,F,
Girls,44.23,3,Faith Lum,Sunnyvale,42.55,63.5,36.29,77.11,176.9,Unlimited,SBD,F,
Girls,44.23,4,Elsabeth Weldegebriel,Everman,41,52.16,38.56,70.31,161.03,Unlimited,SBD,F,
Girls,44.23,5,Myah Williams,Sunnyvale,36.56,58.97,31.75,61.23,151.95,Unlimited,SBD,F,
Girls,47.85,1,Allison Gonzales,Sunnyvale,46.27,86.18,38.56,81.65,206.38,Unlimited,SBD,F,
Girls,51.94,1,Sheyla Flores,Corsicana,51.17,115.67,47.63,113.4,276.69,Unlimited,SBD,F,
Girls,51.94,2,Bella Beltran,Ferris,49.08,129.27,61.23,113.4,303.91,Unlimited,SBD,F,
Girls,51.94,3,Scarlette Harris,Emory Rains,51.71,97.52,56.7,124.74,278.96,Unlimited,SBD,F,
Girls,51.94,4,Keyla Sanlaolaya,Ferris,51.71,83.91,45.36,88.45,217.72,Unlimited,SBD,F,
Girls,51.94,5,Peyton Billingsly,Sunnyvale,48.26,70.31,34.02,74.84,179.17,Unlimited,SBD,F,
Girls,51.94,6,Gwendolyn Morales,Everman,50.44,65.77,27.22,79.38,172.37,Unlimited,SBD,F,
Girls,56.02,1,Arabella Chavarria,Ferris,53.07,108.86,49.9,113.4,272.16,Unlimited,SBD,F,
Girls,56.02,2,Roxana Castro,Corsicana,55.79,102.06,36.29,104.33,242.67,Unlimited,SBD,F,
Girls,56.02,3,Tristan Staley,Sunnyvale,53.52,90.72,52.16,97.52,240.4,Unlimited,SBD,F,
Girls,56.02,4,Melanie Garcia,Corsicana,53.25,90.72,47.63,92.99,231.33,Unlimited,SBD,F,
Girls,56.02,5,Jacee Reaves,Emory Rains,53.52,77.11,43.09,95.25,215.46,Unlimited,SBD,F,
Girls,60.1,1,Madison Smith,Sunnyvale,59.33,115.67,68.04,97.52,281.23,Unlimited,SBD,F,
Girls,60.1,2,Amanda Rimbey,Emory Rains,58.88,90.72,61.23,92.99,244.94,Unlimited,SBD,F,
Girls,60.1,3,Hannah Kearney,Sunnyvale,59.69,95.25,45.36,104.33,244.94,Unlimited,SBD,F,
Girls,60.1,4,Ruby Sandoval,Everman,59.33,97.52,43.09,99.79,240.4,Unlimited,SBD,F,
Girls,60.1,5,Abigail Baldwin,Sunnyvale,59.24,90.72,45.36,92.99,229.06,Unlimited,SBD,F,
Girls,60.1,6,Cambryn McCollum,Corsicana,59.96,79.38,47.63,81.65,208.65,Unlimited,SBD,F,
Girls,60.1,7,Autumn McKeehan,Canton,59.87,74.84,45.36,81.65,201.85,Unlimited,SBD,F,
Girls,60.1,8,Alexa Solis,Everman,58.06,68.04,38.56,83.91,190.51,Unlimited,SBD,F,
Girls,60.1,DQ,Annabelle Thomas,Canton,58.6,,,,,Unlimited,SBD,F,
Girls,67.36,1,Heaven Gruzins,Corsicana,67.04,122.47,68.04,142.88,333.39,Unlimited,SBD,F,
Girls,67.36,2,Sarai Martinez,Mesquite Horn,67.13,113.4,56.7,124.74,294.84,Unlimited,SBD,F,
Girls,67.36,3,Kara Pride,Canton,61.51,113.4,52.16,122.47,288.03,Unlimited,SBD,F,
Girls,67.36,4,Mireyli Castillo,Mesquite Poteet,62.6,111.13,52.16,117.93,281.23,Unlimited,SBD,F,
Girls,67.36,5,Lyla Sanlaolaya,Ferris,66.41,111.13,56.7,113.4,281.23,Unlimited,SBD,F,
Girls,67.36,6,Sylvia Baldwin,Sunnyvale,63.87,92.99,52.16,104.33,249.48,Unlimited,SBD,F,
Girls,67.36,7,Sophia Lara,Corsicana,62.32,88.45,49.9,97.52,235.87,Unlimited,SBD,F,
Girls,67.36,8,Kerrington Allen,Everman,66.13,70.31,43.09,106.59,219.99,Unlimited,SBD,F,
Girls,67.36,9,Zaria Smallwood,Everman,60.51,83.91,45.36,83.91,213.19,Unlimited,SBD,F,
Girls,67.36,10,Jacqueline Guerrero,Everman,63.96,83.91,36.29,88.45,208.65,Unlimited,SBD,F,
Girls,67.36,DQ,Sarah Weichman,Ferris,63.05,,,,,Unlimited,SBD,F,
Girls,67.36,DQ,Carol Moore,Sunnyvale,65.68,90.72,,,,Unlimited,SBD,F,
Girls,75.07,1,Sara Lopez,Corsicana,74.03,142.88,81.65,136.08,360.61,Unlimited,SBD,F,
Girls,75.07,2,Nicholete Burden,Emory Rains,68.4,111.13,77.11,131.54,319.78,Unlimited,SBD,F,
Girls,75.07,3,Yazmin Avina,Ferris,72.76,120.2,56.7,133.81,310.71,Unlimited,SBD,F,
Girls,75.07,4,Olivia Phan,Sunnyvale,69.85,113.4,56.7,111.13,281.23,Unlimited,SBD,F,
Girls,75.07,5,Dani Miller,Ferris,72.03,106.59,61.23,113.4,281.23,Unlimited,SBD,F,
Girls,75.07,6,Morgan Myers,Canton,72.57,113.4,56.7,108.86,278.96,Unlimited,SBD,F,
Girls,75.07,7,Rylee Owens,Canton,73.03,92.99,47.63,88.45,229.06,Unlimited,SBD,F,
Girls,75.07,8,Kyndal Nix,Canton,70.58,88.45,47.63,81.65,217.72,Unlimited,SBD,F,
Girls,75.07,9,Graciela Gonzalez,Everman,71.3,83.91,29.48,88.45,201.85,Unlimited,SBD,F,
Girls,75.07,10,Paulina Lopez,Everman,71.49,65.77,34.02,86.18,185.97,Unlimited,SBD,F,
Girls,82.33,1,Baylee Rosenthal,Ferris,81.19,140.61,74.84,133.81,349.27,Unlimited,SBD,F,
Girls,82.33,2,Bailey Koonce,Canton,79.38,145.15,56.7,145.15,347,Unlimited,SBD,F,
Girls,82.33,3,Yeranli Lopez-Bonilla,Everman,79.92,140.61,90.72,106.59,337.93,Unlimited,SBD,F,
Girls,82.33,4,Grace Miles,Sunnyvale,80.1,129.27,49.9,124.74,303.91,Unlimited,SBD,F,
Girls,82.33,5,Daniela Cano,Corsicana,82.1,129.27,68.04,104.33,301.64,Unlimited,SBD,F,
Girls,82.33,6,Lily Cabrera,Sunnyvale,81.37,111.13,63.5,111.13,285.76,Unlimited,SBD,F,
Girls,82.33,7,Sophia McCaleb,Mesquite Poteet,79.65,108.86,52.16,111.13,272.16,Unlimited,SBD,F,
Girls,82.33,8,Laney Reid,Canton,76.2,113.4,47.63,108.86,269.89,Unlimited,SBD,F,
Girls,82.33,9,Isabelle Williams,Canton,76.48,86.18,43.09,92.99,222.26,Unlimited,SBD,F,
Girls,90.04,1,Mia David,Sunnyvale,85.46,176.9,81.65,136.08,394.63,Unlimited,SBD,F,
Girls,90.04,2,Lilian Rodas,Ferris,86.82,145.15,72.57,136.08,353.8,Unlimited,SBD,F,
Girls,90.04,3,Abigail Zuniga,Corsicana,88.72,113.4,49.9,136.08,299.37,Unlimited,SBD,F,
Girls,90.04,4,Katie Derleth,Sunnyvale,87.82,113.4,63.5,115.67,292.57,Unlimited,SBD,F,
Girls,100.02,1,Ellie OMara,Canton,94.98,136.08,79.38,124.74,340.19,Unlimited,SBD,F,
Girls,100.02,2,Jacelyn Van Syckle,Canton,91.63,90.72,61.23,92.99,244.94,Unlimited,SBD,F,
Girls,100.02,3,Kinzey Wood,Emory Rains,99.06,86.18,61.23,97.52,244.94,Unlimited,SBD,F,
Girls,110,1,Meraly Martinez,Everman,108.59,124.74,54.43,115.67,294.84,Unlimited,SBD,F,
Girls,110+,1,Laikahs Kelly,Corsicana,122.56,219.99,117.93,192.78,530.7,Unlimited,SBD,F,
Girls,110+,2,Codi Miller,Ferris,124.65,201.85,102.06,142.88,446.79,Unlimited,SBD,F,
Girls,110+,3,Leslee Jones,Corsicana,113.58,174.63,95.25,156.49,426.38,Unlimited,SBD,F,
Girls,110+,4,Peyton Grady,Mesquite Horn,125.83,170.1,92.99,147.42,410.5,Unlimited,SBD,F,
Girls,110+,5,Rachel Ragsdale,Mesquite Horn,123.1,106.59,74.84,124.74,306.17,Unlimited,SBD,F,
Girls,110+,6,Ximena Montoya,Everman,110.68,79.38,43.09,102.06,224.53,Unlimited,SBD,F,
Girls,110+,DQ,Angelica Becerril,Corsicana,120.02,149.69,,,,Unlimited,SBD,F,
