Division,WeightClassKg,Place,Name,Team,BodyweightKg,Best3SquatKg,Best3BenchKg,Best3DeadliftKg,TotalKg,Equipment,Event,Sex,BirthDate
Girls,44.23,1,Myleigh Bradshaw,Tyler Chapel Hill,43.18,77.11,45.36,81.65,204.12,Unlimited,SBD,F,
Girls,44.23,2,Sydnee Pack,Hawkins,40.19,52.16,38.56,65.77,156.49,Unlimited,SBD,F,
Girls,44.23,3,Cianna Devillier,Jacksonville,43,52.16,27.22,65.77,145.15,Unlimited,SBD,F,
Girls,47.85,1,Joci Hill,Rusk,46.27,65.77,40.82,88.45,195.04,Unlimited,SBD,F,
Girls,47.85,2,Kali Perkins,Tyler Chapel Hill,47.63,56.7,29.48,68.04,154.22,Unlimited,SBD,F,
Girls,47.85,DQ,Presley Johnson,Arp,47.54,90.72,,,,Unlimited,SBD,F,
Girls,47.85,DQ,Colbie Rountree,Henderson,47.63,,,,,Unlimited,SBD,F,
Girls,51.94,1,Kenzy Chandler,Rusk,50.53,88.45,47.63,92.99,229.06,Unlimited,SBD,F,
Girls,51.94,2,Ainsley Oliver,Rusk,51.71,83.91,40.82,104.33,229.06,Unlimited,SBD,F,
Girls,51.94,3,Reyna Espinoza,Palestine,49.9,63.5,38.56,72.57,174.63,Unlimited,SBD,F,
Girls,51.94,4,Serenity Smith,Grapeland,49.99,70.31,22.68,74.84,167.83,Unlimited,SBD,F,
Girls,51.94,DQ,Journey Hawkins,Arp,50.71,58.97,,,,Unlimited,SBD,F,
Girls,56.02,1,Kate Paz,Arp,55.25,102.06,61.23,131.54,294.84,Unlimited,SBD,F,
Girls,56.02,2,Lexi Easterling,Groveton,55.25,124.74,54.43,104.33,283.5,Unlimited,SBD,F,
Girls,56.02,3,Wren Goode,Henderson,54.34,102.06,52.16,106.59,260.82,Unlimited,SBD,F,
Girls,56.02,4,Alondra Rangel,Jacksonville,55.79,104.33,56.7,97.52,258.55,Unlimited,SBD,F,
Girls,56.02,5,Bailey Rawlingson,Rusk,54.7,97.52,49.9,106.59,254.01,Unlimited,SBD,F,
Girls,56.02,6,Caris Jinkins,Rusk,55.38,95.25,52.16,95.25,242.67,Unlimited,SBD,F,
Girls,56.02,7,Melody Scruggs,Jacksonville,52.53,72.57,36.29,95.25,204.12,Unlimited,SBD,F,
Girls,56.02,DQ,Samantha Ruiz,Palestine,55.16,65.77,,,,Unlimited,SBD,F,
Girls,56.02,DQ,Elizabeth Rodger,Hawkins,55.97,99.79,,,,Unlimited,SBD,F,
Girls,56.02,DQ,Danica Marsh,Hawkins,55.34,,,,,Unlimited,SBD,F,
Girls,56.02,DQ,Katelyn Francher,Henderson,53.43,49.9,,,,Unlimited,SBD,F,
Girls,60.1,1,Kerra Moore-Eubanks,Tyler Chapel Hill,56.61,111.13,65.77,106.59,283.5,Unlimited,SBD,F,
Girls,60.1,2,Lillie Haskins,Arp,59.96,99.79,65.77,106.59,272.16,Unlimited,SBD,F,
Girls,60.1,3,Kenley Burt,Henderson,59.15,102.06,49.9,104.33,256.28,Unlimited,SBD,F,
Girls,60.1,4,Nataly Galan,Rusk,59.42,102.06,38.56,108.86,249.48,Unlimited,SBD,F,
Girls,60.1,5,Jazmin Maciel,Henderson,56.15,63.5,36.29,68.04,167.83,Unlimited,SBD,F,
Girls,60.1,DQ,Kenall Reynolds,Rusk,59.87,77.11,29.48,83.91,,Unlimited,SBD,F,
Girls,67.36,1,Nolyn Norris,Henderson,66.59,190.51,102.06,167.83,460.4,Unlimited,SBD,F,
Girls,67.36,2,Claire Tipton,Rusk,65.41,183.7,108.86,163.29,455.86,Unlimited,SBD,F,
Girls,67.36,3,Eliauna Vanheise,Arp,66.95,104.33,83.91,124.74,312.98,Unlimited,SBD,F,
Girls,67.36,4,Mersaydez Lewis,Tyler Chapel Hill,66.13,113.4,72.57,113.4,299.37,Unlimited,SBD,F,
Girls,67.36,5,Kaileigh Lopez,Groveton,63.05,104.33,61.23,102.06,267.62,Unlimited,SBD,F,
Girls,67.36,6,Haylee Jones,Grapeland,63.41,92.99,47.63,111.13,251.74,Unlimited,SBD,F,
Girls,67.36,7,Shayla Ramirez,Jacksonville,62.51,92.99,63.5,92.99,249.48,Unlimited,SBD,F,
Girls,67.36,8,Angelena Rodriguez,Tyler Chapel Hill,64.77,90.72,52.16,99.79,242.67,Unlimited,SBD,F,
Girls,67.36,9,Kenzli Dayton,Tyler Chapel Hill,66.5,88.45,54.43,97.52,240.4,Unlimited,SBD,F,
Girls,67.36,10,Makinzy McNew,Rusk,64.32,83.91,43.09,108.86,235.87,Unlimited,SBD,F,
Girls,67.36,11,Daisia Leonard,Groveton,66.04,88.45,38.56,97.52,224.53,Unlimited,SBD,F,
Girls,67.36,12,Emily Moreno,Jacksonville,63.59,61.23,43.09,88.45,192.78,Unlimited,SBD,F,
Girls,67.36,13,Yesenia Maciel,Henderson,67.31,58.97,40.82,74.84,174.63,Unlimited,SBD,F,
Girls,67.36,14,Cali Leon,Jacksonville,63.59,43.09,29.48,83.91,156.49,Unlimited,SBD,F,
Girls,67.36,15,Nicole Hunt,Palestine,65.68,117.93,,,117.93,Unlimited,S,F,
Girls,67.36,DQ,Leeorna Olivarez,Palestine,67.04,77.11,,,,Unlimited,SBD,F,
Girls,67.36,DQ,Carmen Parson,Groveton,60.15,,,,,Unlimited,SBD,F,
Girls,67.36,DQ,Brookyln McGee,Tyler Chapel Hill,66.9,,,,,Unlimited,SBD,F,
Girls,75.07,1,Cayla Thomas,Henderson,70.31,136.08,61.23,113.4,310.71,Unlimited,SBD,F,
Girls,75.07,2,Hazel Martinez,Grapeland,71.3,129.27,52.16,120.2,301.64,Unlimited,SBD,F,
Girls,75.07,3,Hailey Hall,Groveton,69.4,129.27,61.23,102.06,292.57,Unlimited,SBD,F,
Girls,75.07,4,Kaydance Davenport,Rusk,72.3,102.06,43.09,117.93,263.08,Unlimited,SBD,F,
Girls,75.07,5,Brianna Sisk,Tyler Chapel Hill,74.84,79.38,56.7,102.06,238.14,Unlimited,SBD,F,
Girls,75.07,6,Abbie Walsh,Tyler Chapel Hill,72.57,90.72,47.63,95.25,233.6,Unlimited,SBD,F,
Girls,75.07,7,Marlen Garcia,Groveton,73.39,83.91,47.63,79.38,210.92,Unlimited,SBD,F,
Girls,75.07,8,Aashni Guzman,Henderson,71.21,88.45,40.82,74.84,204.12,Unlimited,SBD,F,
Girls,75.07,9,Amy Aguilar,New Summerfield,73.21,83.91,36.29,83.91,204.12,Unlimited,SBD,F,
Girls,75.07,10,Ruby Teeter,Palestine,68.04,52.16,31.75,74.84,158.76,Unlimited,SBD,F,
Girls,75.07,DQ,Maycynn Meshall,Groveton,75.02,88.45,,,,Unlimited,SBD,F,
Girls,82.33,1,Catherine Egbe,Palestine,76.2,124.74,52.16,136.08,312.98,Unlimited,SBD,F,
Girls,82.33,2,Londyn Wilson,Hawkins,80.29,113.4,65.77,120.2,299.37,Unlimited,SBD,F,
Girls,82.33,3,Paislie Voelker,Groveton,81.65,111.13,52.16,115.67,278.96,Unlimited,SBD,F,
Girls,82.33,4,Heidi Hernandez,New Summerfield,78.2,74.84,36.29,79.38,190.51,Unlimited,SBD,F,
Girls,82.33,5,Jemerykah Dryden,Palestine,80.1,70.31,34.02,70.31,174.63,Unlimited,SBD,F,
Girls,82.33,DQ,Emery Norman,Rusk,77.93,79.38,45.36,106.59,,Unlimited,SBD,F,
Girls,82.33,DQ,Kaci Henley,Groveton,76.02,,,,,Unlimited,SBD,F,
Girls,90.04,1,Allyson Mathews,Hawkins,87.27,136.08,97.52,111.13,344.73,Unlimited,SBD,F,
Girls,90.04,2,Ainslee Vargas,Rusk,84.55,127.01,61.23,113.4,301.64,Unlimited,SBD,F,
Girls,90.04,3,Madelyne Eaton,Arp,85.91,111.13,52.16,136.08,299.37,Unlimited,SBD,F,
Girls,90.04,4,Laney Harwell,Jacksonville,88,99.79,61.23,115.67,276.69,Unlimited,SBD,F,
Girls,90.04,5,Melanie Gonzalez,New Summerfield,84.64,111.13,47.63,88.45,247.21,Unlimited,SBD,F,
Girls,90.04,6,Diana Moreno,New Summerfield,87.18,102.06,43.09,97.52,242.67,Unlimited,SBD,F,
Girls,90.04,7,Grace Dominoe,Pollok Central,90.04,70.31,38.56,79.38,188.24,Unlimited,SBD,F,
Girls,90.04,8,Nemesia Arteaga,Tyler Chapel Hill,89.09,54.43,40.82,70.31,165.56,Unlimited,SBD,F,
Girls,100.02,1,Taniya Crumpton,Tyler Chapel Hill,92.35,129.27,88.45,129.27,347,Unlimited,SBD,F,
Girls,100.02,2,Madison Francher,Henderson,92.44,122.47,79.38,106.59,308.44,Unlimited,SBD,F,
Girls,100.02,3,Cloe Rosonke,Hawkins,95.71,115.67,68.04,122.47,306.17,Unlimited,SBD,F,
Girls,100.02,4,Anaya Williams,Palestine,98.61,88.45,43.09,63.5,195.04,Unlimited,SBD,F,
Girls,100.02,5,Maria Cavillo,Jacksonville,98.07,56.7,29.48,99.79,185.97,Unlimited,SBD,F,
Girls,100.02,6,Alice Smith,Arp,95.53,127.01,,,127.01,Unlimited,S,F,
Girls,110,1,Mattie Oliver,Rusk,109.36,136.08,74.84,122.47,333.39,Unlimited,SBD,F,
Girls,110,2,Yazmin Galvan,New Summerfield,105.96,124.74,49.9,127.01,301.64,Unlimited,SBD,F,
Girls,110+,1,Carrie Bixler,Hawkins,134.81,181.44,117.93,165.56,464.93,Unlimited,SBD,F,
Girls,110+,2,Isabell Lane,Grapeland,113.67,151.95,65.77,165.56,383.29,Unlimited,SBD,F,
Girls,110+,3,Leilah Pilgrim,Groveton,135.81,142.88,90.72,117.93,351.53,Unlimited,SBD,F,
Girls,110+,4,Anajah White,Jacksonville,140.61,142.88,56.7,147.42,347,Unlimited,SBD,F,
Girls,110+,5,Makayla Ard,Hawkins,112.13,136.08,52.16,129.27,317.51,Unlimited,SBD,F,
Girls,110+,6,Mya White,Jacksonville,127.46,136.08,52.16,122.47,310.71,Unlimited,SBD,F,
Girls,110+,7,Brooylnn Brawner,Rusk,121.11,136.08,52.16,113.4,301.64,Unlimited,SBD,F,
Girls,110+,8,Aubree Warren,New Summerfield,124.1,136.08,47.63,102.06,285.76,Unlimited,SBD,F,
Girls,110+,9,Jada Wolf,Jacksonville,136.53,92.99,47.63,99.79,240.4,Unlimited,SBD,F,
Girls,110+,10,Mikaya Hodge,Palestine,126.1,92.99,52.16,90.72,235.87,Unlimited,SBD,F,
Girls,110+,11,Kelis Drawhorn,Tyler Chapel Hill,122.47,72.57,63.5,92.99,229.06,Unlimited,SBD,F,
Girls,110+,12,Macari Brown,Palestine,116.03,72.57,43.09,61.23,176.9,Unlimited,SBD,F,
Girls,110+,DQ,Gabby Ferretiz,Palestine,119.02,136.08,,,,Unlimited,SBD,F,
Girls,,NS,Mercedes Wilson,Groveton,,,,,,Unlimited,SBD,F,
Girls,,NS,Emrie Parker,Groveton,,,,,,Unlimited,SBD,F,
Girls,,NS,Addison Martin,Pollok Central,,,,,,Unlimited,SBD,F,
Girls,,NS,Emma Morrison,Henderson,,,,,,Unlimited,SBD,F,
Girls,,NS,Rubi Jiminez,Henderson,,,,,,Unlimited,SBD,F,
