Division,WeightClassKg,Place,Name,Team,BodyweightKg,Best3SquatKg,Best3BenchKg,Best3DeadliftKg,TotalKg,Equipment,Event,Sex,BirthDate
Girls,44.23,1,Alivia Jalomo,Ballinger,42.82,70.31,40.82,79.38,190.51,Unlimited,SBD,F,
Girls,47.85,1,Elaine Zhuang,Ballinger,47.76,113.4,61.23,120.2,294.84,Unlimited,SBD,F,
Girls,47.85,2,Henslee Middleton,Early,46.72,95.25,52.16,99.79,247.21,Unlimited,SBD,F,
Girls,47.85,3,Lexy Dunham,Ballinger,47.45,63.5,43.09,92.99,199.58,Unlimited,SBD,F,
Girls,51.94,1,Alejandra Alegria,Eldorado,50.89,138.35,88.45,124.74,351.53,Unlimited,SBD,F,
Girls,51.94,2,Julienne Socong,Early,51.62,127.01,70.31,142.88,340.19,Unlimited,SBD,F,
Girls,51.94,3,Matty Boswell,Early,51.26,131.54,68.04,129.27,328.85,Unlimited,SBD,F,
Girls,51.94,4,Madeline Valeriano,Eldorado,51.07,108.86,47.63,106.59,263.08,Unlimited,SBD,F,
Girls,51.94,5,Lillian Ramos,Brady,48.26,79.38,47.63,102.06,229.06,Unlimited,SBD,F,
Girls,51.94,6,Ashley Robinson,Brownwood,50.08,79.38,43.09,79.38,201.85,Unlimited,SBD,F,
Girls,51.94,7,Nhu Le,Sweetwater,48.81,65.77,38.56,95.25,199.58,Unlimited,SBD,F,
Girls,51.94,8,Mackenzie Lambert,Sweetwater,50.98,72.57,47.63,79.38,199.58,Unlimited,SBD,F,
Girls,51.94,DQ,Amanda Cortez,Eldorado,51.89,115.67,,,,Unlimited,SBD,F,
Girls,56.02,1,Alexa Hernandez,Early,54.16,145.15,90.72,149.69,385.55,Unlimited,SBD,F,
Girls,56.02,2,Emma Rutledge,Ballinger,53.43,131.54,77.11,136.08,344.73,Unlimited,SBD,F,
Girls,56.02,3,Alexis Martinez,Eldorado,55.16,124.74,72.57,124.74,322.05,Unlimited,SBD,F,
Girls,56.02,4,Minelly Montes,Eldorado,54.52,113.4,74.84,127.01,315.25,Unlimited,SBD,F,
Girls,56.02,5,Raelyn Graff,Brady,54.07,127.01,61.23,117.93,306.17,Unlimited,SBD,F,
Girls,56.02,6,Kendall Smith,Ballinger,52.71,95.25,61.23,113.4,269.89,Unlimited,SBD,F,
Girls,56.02,7,Keni Drennan,Ballinger,54.88,90.72,49.9,95.25,235.87,Unlimited,SBD,F,
Girls,56.02,8,Mikenzie Halfmann,Ballinger,54.48,83.91,40.82,90.72,215.46,Unlimited,SBD,F,
Girls,56.02,9,Tristin Rubio,San Angelo TLC Academy,54.7,70.31,49.9,90.72,210.92,Unlimited,SBD,F,
Girls,60.1,1,Loveli Sanders,Ballinger,57.92,138.35,77.11,131.54,347,Unlimited,SBD,F,
Girls,60.1,2,Carmen Mata,Eldorado,58.69,129.27,63.5,127.01,319.78,Unlimited,SBD,F,
Girls,60.1,3,London Delgado,Brownwood,58.97,113.4,52.16,102.06,267.62,Unlimited,SBD,F,
Girls,60.1,4,Alana McDuffee,Ballinger,56.84,97.52,47.63,106.59,251.74,Unlimited,SBD,F,
Girls,60.1,5,Maddie Dixon,Ballinger,56.38,97.52,52.16,99.79,249.48,Unlimited,SBD,F,
Girls,60.1,6,Jillian Rodriguez,Ballinger,57.79,97.52,47.63,102.06,247.21,Unlimited,SBD,F,
Girls,60.1,7,Maddie Moerbe,Brady,57.42,86.18,58.97,90.72,235.87,Unlimited,SBD,F,
Girls,60.1,8,Ella Fritz,Ballinger,56.7,83.91,43.09,92.99,219.99,Unlimited,SBD,F,
Girls,60.1,9,Deesa Drennan,Ballinger,59.06,97.52,38.56,83.91,219.99,Unlimited,SBD,F,
Girls,60.1,10,Lilly Pittman,Sweetwater,58.06,61.23,34.02,72.57,167.83,Unlimited,SBD,F,
Girls,60.1,DQ,Layla Weedon,Brownwood,59.87,,,,,Unlimited,SBD,F,
Girls,67.36,1,Heidi Estrada,Eldorado,64.23,129.27,72.57,129.27,331.12,Unlimited,SBD,F,
Girls,67.36,2,Samantha Trevino,San Angelo TLC Academy,65.41,136.08,54.43,136.08,326.59,Unlimited,SBD,F,
Girls,67.36,3,Kiara Mata,Ballinger,67.22,102.06,70.31,136.08,308.44,Unlimited,SBD,F,
Girls,67.36,4,Kylie Villarreal,Ballinger,66.09,83.91,65.77,129.27,278.96,Unlimited,SBD,F,
Girls,67.36,5,Destiny Dominguez,Eldorado,61.69,108.86,63.5,102.06,274.42,Unlimited,SBD,F,
Girls,67.36,6,Addison Welch,Brownwood,61.96,88.45,52.16,97.52,238.14,Unlimited,SBD,F,
Girls,67.36,7,Amiyah Avalos,Brownwood,66.68,88.45,43.09,97.52,229.06,Unlimited,SBD,F,
Girls,67.36,8,Kynlee Palmer,Ballinger,60.6,90.72,38.56,97.52,226.8,Unlimited,SBD,F,
Girls,67.36,9,Kaytlyn Smith,Brownwood,67.13,81.65,47.63,97.52,226.8,Unlimited,SBD,F,
Girls,67.36,10,Lenia Weichert,Ballinger,62.14,79.38,40.82,83.91,204.12,Unlimited,SBD,F,
Girls,67.36,DQ,Yesenia Avila,Ballinger,67.27,108.86,58.97,,,Unlimited,SBD,F,
Girls,75.07,1,Mari Cruz Esparza,Eldorado,72.67,145.15,102.06,138.35,385.55,Unlimited,SBD,F,
Girls,75.07,2,Mimi Martinez,Eldorado,74.75,142.88,88.45,138.35,369.68,Unlimited,SBD,F,
Girls,75.07,3,Addyson King,Ballinger,73.3,136.08,63.5,122.47,322.05,Unlimited,SBD,F,
Girls,75.07,4,Jordana Milioni,San Angelo TLC Academy,69.67,140.61,61.23,115.67,317.51,Unlimited,SBD,F,
Girls,75.07,5,Angela Diaz,Sweetwater,74.03,117.93,63.5,117.93,299.37,Unlimited,SBD,F,
Girls,75.07,6,Jordyn Werner,Brady,71.21,120.2,52.16,120.2,292.57,Unlimited,SBD,F,
Girls,75.07,7,Nyomi Hernandez,Ballinger,70.31,102.06,52.16,111.13,265.35,Unlimited,SBD,F,
Girls,75.07,8,Kenli Schwandner,Ballinger,71.35,72.57,45.36,90.72,208.65,Unlimited,SBD,F,
Girls,75.07,9,Esperanza Villegas,Ballinger,68.58,61.23,45.36,77.11,183.7,Unlimited,SBD,F,
Girls,75.07,DQ,Hannah Haddon,Ballinger,74.75,,,,,Unlimited,SBD,F,
Girls,75.07,DQ,Gracie Galindo,Brady,74.93,151.95,,,,Unlimited,SBD,F,
Girls,82.33,1,Nyomi Aranda,Eldorado,78.38,172.37,113.4,154.22,439.98,Unlimited,SBD,F,
Girls,82.33,2,Lupe Esparza,Eldorado,81.74,151.95,102.06,140.61,394.63,Unlimited,SBD,F,
Girls,82.33,3,Julissa Laureles,Sweetwater,78.11,122.47,65.77,108.86,297.1,Unlimited,SBD,F,
Girls,82.33,4,Marlee Martinez,Early,80.2,113.4,56.7,108.86,278.96,Unlimited,SBD,F,
Girls,82.33,5,Samantha Reyes,Brady,78.11,88.45,61.23,95.25,244.94,Unlimited,SBD,F,
Girls,82.33,DQ,Kelssey Aponte,San Angelo TLC Academy,78.02,,,,,Unlimited,SBD,F,
Girls,90.04,1,Jocelynn Huerta,San Angelo TLC Academy,88.72,183.7,97.52,163.29,444.52,Unlimited,SBD,F,
Girls,90.04,2,Sarah Hernandez,San Angelo TLC Academy,85.64,136.08,61.23,117.93,315.25,Unlimited,SBD,F,
Girls,90.04,3,Victoria Grauman,Sweetwater,84.73,29.48,70.31,38.56,138.35,Unlimited,SBD,F,
Girls,100.02,1,Daniela Hernandez,Brady,92.26,158.76,90.72,142.88,392.36,Unlimited,SBD,F,
Girls,100.02,2,Julyssa Sanchez,Brady,94.98,120.2,65.77,127.01,312.98,Unlimited,SBD,F,
Girls,100.02,3,Destiny Deanda,San Angelo TLC Academy,92.44,120.2,61.23,108.86,290.3,Unlimited,SBD,F,
Girls,100.02,4,Saniya Morton,Valera Panther Creek,99.61,115.67,40.82,106.59,263.08,Unlimited,SBD,F,
Girls,110,1,Holly Pittman,Sweetwater,109.04,127.01,74.84,120.2,322.05,Unlimited,SBD,F,
Girls,110,2,Brittany Hernandez,Sweetwater,103.87,115.67,45.36,108.86,269.89,Unlimited,SBD,F,
Girls,110+,1,Rayana Barzart,Early,112.85,170.1,106.59,127.01,403.7,Unlimited,SBD,F,
Girls,110+,2,Samerra Reed,Brady,117.66,136.08,81.65,136.08,353.8,Unlimited,SBD,F,
Girls,,NS,Kyber Zemlock,San Angelo TLC Academy,,,,,,Unlimited,SBD,F,
Girls,,NS,Kenlie Castleberry,Coleman,,,,,,Unlimited,SBD,F,
Girls,,NS,Roxanne Martinez,Coleman,,,,,,Unlimited,SBD,F,
Girls,,NS,Aidyn Harald,Coleman,,,,,,Unlimited,SBD,F,
Girls,,NS,Norma Guerrero,Coleman,,,,,,Unlimited,SBD,F,
Girls,,NS,Meghan Mccorkle,Early,,,,,,Unlimited,SBD,F,
Girls,,NS,Kayli Devusser,Early,,,,,,Unlimited,SBD,F,
