Division,WeightClassKg,Place,Name,Team,BodyweightKg,Best3SquatKg,Best3BenchKg,Best3DeadliftKg,TotalKg,Equipment,Event,Sex,BirthDate
Girls,44.23,1,Alexa Alaniz,Brownsville Veterans Memorial,44,147.42,74.84,154.22,376.48,Unlimited,SBD,F,
Girls,44.23,2,June Acevedo,Donna,42.91,115.67,61.23,127.01,303.91,Unlimited,SBD,F,
Girls,44.23,3,Carolina Garcia De Leon,Brownsville Riverview IDEA,43.73,88.45,52.16,97.52,238.14,Unlimited,SBD,F,
Girls,47.85,1,Levi Gavino,Edinburg Economedes,47.63,79.38,40.82,83.91,204.12,Unlimited,SBD,F,
Girls,47.85,2,Sarah Rodriguez,Brownsville Veterans Memorial,46.63,68.04,29.48,92.99,190.51,Unlimited,SBD,F,
Girls,51.94,1,Adriana Fernandez,Brownsville Porter,48.99,145.15,74.84,133.81,353.8,Unlimited,SBD,F,
Girls,51.94,2,Ava Krawczynski,Los Fresnos,51.53,133.81,68.04,136.08,337.93,Unlimited,SBD,F,
Girls,51.94,3,Hailey McClanahan,Brownsville Veterans Memorial,51.71,129.27,63.5,136.08,328.85,Unlimited,SBD,F,
Girls,51.94,4,Elvira Lopez,Donna,50.71,124.74,58.97,115.67,299.37,Unlimited,SBD,F,
Girls,51.94,5,Janie Garcia,Los Fresnos,49.99,102.06,54.43,117.93,274.42,Unlimited,SBD,F,
Girls,51.94,6,Madison Silva,Brownsville Hanna,50.26,102.06,61.23,111.13,274.42,Unlimited,SBD,F,
Girls,51.94,7,Denise Torres,Donna,50.8,99.79,52.16,122.47,274.42,Unlimited,SBD,F,
Girls,51.94,8,Arlet Briseno,Edinburg Economedes,50.98,68.04,52.16,81.65,201.85,Unlimited,SBD,F,
Girls,56.02,1,Ollie Valdez,Brownsville Veterans Memorial,55.79,154.22,102.06,163.29,419.57,Unlimited,SBD,F,
Girls,56.02,2,Alanis Lozano,Donna,55.07,120.2,77.11,138.35,335.66,Unlimited,SBD,F,
Girls,56.02,3,Allison Saavedra,Los Fresnos,53.89,129.27,74.84,127.01,331.12,Unlimited,SBD,F,
Girls,56.02,4,Kaitlyn Garcia,Brownsville Veterans Memorial,55.25,127.01,77.11,122.47,326.59,Unlimited,SBD,F,
Girls,56.02,5,Alexis Palafox,Los Fresnos,55.16,120.2,56.7,129.27,306.17,Unlimited,SBD,F,
Girls,56.02,6,Vashti Garcia,Los Fresnos,54.88,115.67,61.23,99.79,276.69,Unlimited,SBD,F,
Girls,56.02,7,Daniela Garcia,Edinburg Economedes,55.79,106.59,58.97,104.33,269.89,Unlimited,SBD,F,
Girls,56.02,8,Fatima Ali,Brownsville Riverview IDEA,54.98,95.25,36.29,104.33,235.87,Unlimited,SBD,F,
Girls,56.02,9,Samantha Esquivel,Brownsville Riverview IDEA,53.89,97.52,47.63,79.38,224.53,Unlimited,SBD,F,
Girls,60.1,1,Noemi Perez,Brownsville Veterans Memorial,58.88,156.49,88.45,156.49,401.43,Unlimited,SBD,F,
Girls,60.1,2,Zahylin Hernandez,Donna,59.78,131.54,92.99,138.35,362.87,Unlimited,SBD,F,
Girls,60.1,3,Alyssa Moody,Brownsville Veterans Memorial,59.87,138.35,86.18,131.54,356.07,Unlimited,SBD,F,
Girls,60.1,4,Paulina Araiza,Brownsville Riverview IDEA,58.97,142.88,68.04,129.27,340.19,Unlimited,SBD,F,
Girls,60.1,5,Hazel Ibarra,Brownsville Veterans Memorial,59.06,133.81,77.11,129.27,340.19,Unlimited,SBD,F,
Girls,60.1,6,Cheyenne Ramos,Los Fresnos,59.15,149.69,74.84,115.67,340.19,Unlimited,SBD,F,
Girls,60.1,7,Hayley Segura,Brownsville Hanna,59.42,133.81,79.38,122.47,335.66,Unlimited,SBD,F,
Girls,60.1,8,Nancy Leyva,Los Fresnos,57.79,122.47,58.97,122.47,303.91,Unlimited,SBD,F,
Girls,60.1,9,Karyme Jimenez,Brownsville Hanna,57.97,117.93,56.7,113.4,288.03,Unlimited,SBD,F,
Girls,60.1,DQ,Monserrat Maccrio,Brownsville Riverview IDEA,57.61,108.86,49.9,,,Unlimited,SBD,F,
Girls,67.36,1,Mya Villa,Edinburg Economedes,66.77,147.42,61.23,127.01,335.66,Unlimited,SBD,F,
Girls,67.36,2,Julyette Rocha,Los Fresnos,63.68,136.08,65.77,122.47,324.32,Unlimited,SBD,F,
Girls,67.36,3,Mia Rodriguez,Brownsville Hanna,62.51,136.08,68.04,115.67,319.78,Unlimited,SBD,F,
Girls,67.36,4,Jocelyn Espinoza,Donna,66.5,122.47,54.43,131.54,308.44,Unlimited,SBD,F,
Girls,67.36,5,Frida Rivera,Edinburg Economedes,64.05,102.06,49.9,97.52,249.48,Unlimited,SBD,F,
Girls,67.36,6,Ximena Lopez,Edinburg Economedes,60.69,92.99,52.16,102.06,247.21,Unlimited,SBD,F,
Girls,67.36,7,Ana Gonzalez,Brownsville Veterans Memorial,62.51,77.11,52.16,90.72,219.99,Unlimited,SBD,F,
Girls,67.36,8,Alison Robledo,Edinburg Economedes,65.95,74.84,45.36,81.65,201.85,Unlimited,SBD,F,
Girls,75.07,1,Ameerah Gonzales,Brownsville Hanna,74.84,149.69,102.06,142.88,394.63,Unlimited,SBD,F,
Girls,75.07,2,Rachel Velasquez,Brownsville Veterans Memorial,73.94,142.88,92.99,149.69,385.55,Unlimited,SBD,F,
Girls,75.07,3,Paola Barron,Los Fresnos,72.3,158.76,68.04,131.54,358.34,Unlimited,SBD,F,
Girls,75.07,4,Miley Campos,Donna,73.39,154.22,72.57,129.27,356.07,Unlimited,SBD,F,
Girls,75.07,5,Izamar Zapata,Edinburg Economedes,73.84,111.13,65.77,111.13,288.03,Unlimited,SBD,F,
Girls,82.33,1,Alison Gil,Brownsville Porter,78.65,165.56,117.93,156.49,439.98,Unlimited,SBD,F,
Girls,82.33,2,Alessandra Uribe,Donna,80.83,167.83,95.25,127.01,390.09,Unlimited,SBD,F,
Girls,82.33,3,Alondra Mercado,Los Fresnos,76.66,149.69,72.57,115.67,337.93,Unlimited,SBD,F,
Girls,82.33,4,Lalah Moreno,Edinburg Economedes,79.74,124.74,63.5,124.74,312.98,Unlimited,SBD,F,
Girls,90.04,1,Jysiam Acosta,Brownsville Hanna,86.82,179.17,106.59,154.22,439.98,Unlimited,SBD,F,
Girls,90.04,2,Deandra Ybarra,Donna,87.63,158.76,97.52,136.08,392.36,Unlimited,SBD,F,
Girls,90.04,3,Natalie Chavez,Brownsville Veterans Memorial,89.36,147.42,68.04,129.27,344.73,Unlimited,SBD,F,
Girls,90.04,4,Carla Osorio,Brownsville Riverview IDEA,89.9,142.88,70.31,117.93,331.12,Unlimited,SBD,F,
Girls,90.04,5,Joanne Rodriguez,Edinburg Economedes,87.09,124.74,79.38,102.06,306.17,Unlimited,SBD,F,
Girls,90.04,6,Danica Garcia,Brownsville Hanna,89.72,108.86,45.36,113.4,267.62,Unlimited,SBD,F,
Girls,100.02,1,Joselyn Cantu,Brownsville Riverview IDEA,96.52,174.63,81.65,154.22,410.5,Unlimited,SBD,F,
Girls,100.02,2,Jemima Castro,Brownsville Porter,97.79,158.76,95.25,156.49,410.5,Unlimited,SBD,F,
Girls,100.02,3,Abigail Garcia,Donna,91.63,156.49,90.72,158.76,405.97,Unlimited,SBD,F,
Girls,100.02,4,Kaitlyn Castillo,Brownsville Veterans Memorial,92.35,111.13,47.63,138.35,297.1,Unlimited,SBD,F,
Girls,100.02,5,Valeria Fuentes,Brownsville Porter,97.07,97.52,49.9,122.47,269.89,Unlimited,SBD,F,
Girls,100.02,6,Analia Tamez,Edinburg Economedes,91.53,102.06,54.43,108.86,265.35,Unlimited,SBD,F,
Girls,100.02,7,Katelyn Zuniga,Donna,97.25,,90.72,147.42,238.14,Unlimited,BD,F,
Girls,110,1,Heaven Castro,Brownsville Porter,108.14,192.78,102.06,172.37,467.2,Unlimited,SBD,F,
Girls,110,2,Melanie Garcia,Los Fresnos,109.77,179.17,86.18,129.27,394.63,Unlimited,SBD,F,
Girls,110+,1,Kayra Guerrero,Donna,118.57,217.72,127.01,170.1,514.83,Unlimited,SBD,F,
