Division,WeightClassKg,Place,Name,Team,BodyweightKg,Best3SquatKg,Best3BenchKg,Best3DeadliftKg,TotalKg,Equipment,Event,Sex,BirthDate
Boys,59.87,1,Curtis Taylor,Hempstead,57.06,117.93,74.84,142.88,335.66,Unlimited,SBD,M,
Boys,67.13,1,Jonathan Perez,Houston Spring Woods,66.22,106.59,68.04,129.27,303.91,Unlimited,SBD,M,
Boys,74.84,1,Derrick Reed,Hempstead,67.77,108.86,68.04,136.08,312.98,Unlimited,SBD,M,
Boys,82.1,1,Emmanuel Konigbagbe,Katy Mayde Creek,76.84,197.31,86.18,174.63,458.13,Unlimited,SBD,M,
Boys,82.1,2,Alexander Vasquez,Katy Mayde Creek,79.56,154.22,104.33,151.95,410.5,Unlimited,SBD,M,
Boys,82.1,3,Michael Javaherian,Houston Spring Woods,81.65,142.88,74.84,183.7,401.43,Unlimited,SBD,M,
Boys,82.1,4,Alexis Torres,Houston Spring Woods,79.02,97.52,61.23,133.81,292.57,Unlimited,SBD,M,
Boys,82.1,DQ,Bryan Oporta,Katy Mayde Creek,76.66,165.56,,188.24,,Unlimited,SBD,M,
Boys,89.81,1,Adan McGuffin,Katy,87.36,219.99,158.76,197.31,576.06,Unlimited,SBD,M,
Boys,89.81,2,Froylan Villa,Katy Mayde Creek,85.82,183.7,120.2,197.31,501.22,Unlimited,SBD,M,
Boys,89.81,3,Alexis Cruz,Katy Mayde Creek,83.55,170.1,117.93,165.56,453.59,Unlimited,SBD,M,
Boys,89.81,4,Fernando Torres,Houston Spring Woods,83.73,161.03,102.06,190.51,453.59,Unlimited,SBD,M,
Boys,89.81,5,Eris Arrue,Houston Spring Woods,88.99,147.42,97.52,172.37,417.3,Unlimited,SBD,M,
Boys,99.79,1,Edgar Vite,Houston Spring Woods,97.98,249.48,138.35,222.26,610.08,Unlimited,SBD,M,
Boys,99.79,2,Cristian Gonzales,Houston Spring Woods,92.71,226.8,138.35,231.33,596.47,Unlimited,SBD,M,
Boys,99.79,3,Jose Lopez,Houston Spring Woods,98.34,170.1,124.74,165.56,460.4,Unlimited,SBD,M,
Boys,99.79,DQ,Rafeal Cedillo,Houston Spring Woods,94.98,117.93,,183.7,,Unlimited,SBD,M,
Boys,109.77,1,Tyler Willis,Katy,108.68,267.62,176.9,272.16,716.68,Unlimited,SBD,M,
Boys,109.77,2,Ricardo Duran,Hempstead,105.69,102.06,61.23,117.93,281.23,Unlimited,SBD,M,
Boys,109.77,3,Mario Urdielas,Houston Spring Woods,103.42,68.04,74.84,120.2,263.08,Unlimited,SBD,M,
Boys,124.74,1,Henry Herren,Katy Mayde Creek,116.39,154.22,83.91,183.7,421.84,Unlimited,SBD,M,
Boys,139.71,1,Alexis Mendez,Katy Mayde Creek,135.17,235.87,149.69,183.7,569.26,Unlimited,SBD,M,
Boys,139.71,2,Alci Cruz,Katy Mayde Creek,127.01,208.65,136.08,181.44,526.17,Unlimited,SBD,M,
Boys,139.71,3,Derick Garcia,Katy Mayde Creek,127.46,190.51,120.2,199.58,510.29,Unlimited,SBD,M,
Boys,139.71,4,Travon Scyrus,Hempstead,126.64,190.51,108.86,172.37,471.74,Unlimited,SBD,M,
Boys,139.71,5,Bradli Harris,Houston Spring Woods,127.73,142.88,61.23,158.76,362.87,Unlimited,SBD,M,
Boys,,NS,Michael Davila,Houston Spring Woods,,,,,,Unlimited,SBD,M,
Boys,,NS,Kris Rodriguez,Houston Spring Woods,,,,,,Unlimited,SBD,M,
Boys,,NS,Tin Nguyen #3,Houston Spring Woods,,,,,,Unlimited,SBD,M,
